{
  "id": "root",
  "name": "root",
  "color": null,
  "description": "",
  "annotation_count": 0,
  "children": [
    {
      "id": "human-machine",
      "name": "Human/machine Entanglements (Appearance/disappearance)",
      "color": "#ffa348",
      "description": "",
      "annotation_count": 7,
      "children": [
        {
          "id": "vision",
          "name": "Vision",
          "color": null,
          "description": "",
          "annotation_count": 3
        },
        {
          "id": "sound",
          "name": "sound",
          "color": null,
          "description": "",
          "annotation_count": 0
        },
        {
          "id": "behaviour",
          "name": "behaviour",
          "color": null,
          "description": "",
          "annotation_count": 1
        },
        {
          "id": "other-senses",
          "name": "Other senses",
          "color": null,
          "description": "",
          "annotation_count": 2
        }
      ]
    },
    {
      "id": "tensions",
      "name": "Tensions, contestations & problems",
      "color": "#77767b",
      "description": "Which problems are identified?, when do they become problems?",
      "annotation_count": 28
    },
    {
      "id": "security",
      "name": "Security & types of data",
      "color": "#3584e4",
      "description": "",
      "annotation_count": 14,
      "children": [
        {
          "id": "definitions",
          "name": "definitions",
          "color": null,
          "description": "e.g. domain knowledge",
          "annotation_count": 13
        },
        {
          "id": "input",
          "name": "input",
          "color": null,
          "description": "e.g. fake data",
          "annotation_count": 1
        }
      ]
    },
    {
      "id": "actants",
      "name": "Actants in relation",
      "color": "#fa08ff",
      "description": "",
      "annotation_count": 15,
      "children": [
        {
          "id": "algorithm",
          "name": "algorithm",
          "color": null,
          "description": "",
          "annotation_count": 11
        },
        {
          "id": "technologies",
          "name": "technologies",
          "color": null,
          "description": "",
          "annotation_count": 7
        },
        {
          "id": "frt",
          "name": "frt",
          "color": null,
          "description": "",
          "annotation_count": 7
        },
        {
          "id": "cameras",
          "name": "CCTV & camera's",
          "color": null,
          "description": "",
          "annotation_count": 10
        },
        {
          "id": "entities",
          "name": "Entities: people, institutions etc.",
          "color": null,
          "description": "",
          "annotation_count": 15
        },
        {
          "id": "positioning",
          "name": "Positioning",
          "color": null,
          "description": "the positioning of a field/person/oneself in relation to others",
          "annotation_count": 12
        },
        {
          "id": "inside-outside",
          "name": "inside-outside",
          "color": null,
          "description": "",
          "annotation_count": 0
        },
        {
          "id": "public-private",
          "name": "public-private",
          "color": null,
          "description": "",
          "annotation_count": 5
        }
      ]
    },
    {
      "id": "consequences",
      "name": "consequences",
      "color": "#0add32",
      "description": "",
      "annotation_count": 5,
      "children": [
        {
          "id": "effects",
          "name": "effects",
          "color": null,
          "description": "",
          "annotation_count": 8
        },
        {
          "id": "future-imaginaries",
          "name": "future-imaginaries",
          "color": null,
          "description": "",
          "annotation_count": 14
        },
        {
          "id": "speculations",
          "name": "speculations",
          "color": null,
          "description": "what is & what will/can be done.",
          "annotation_count": 7
        },
        {
          "id": "innovations",
          "name": "innovations",
          "color": null,
          "description": "",
          "annotation_count": 4
        }
      ]
    },
    {
      "id": "hesitation",
      "name": "Hesitations & corrections",
      "color": "#f8e45c",
      "description": "",
      "annotation_count": 24
    },
    {
      "id": "skip",
      "name": "skip",
      "color": null,
      "description": "",
      "annotation_count": 18
    },
    {
      "id": "todo",
      "name": "to do / interesting",
      "color": "#ff0000",
      "description": "",
      "annotation_count": 9
    },
    {
      "id": "6f9a83a1-e374-4dc9-a6c4-39c5461bb435",
      "name": "Threat & Risk - What is being protected by SV",
      "color": "#813d9c",
      "description": "",
      "annotation_count": 22
    },
    {
      "id": "3fda0504-00ff-485e-9faf-ca7d08e4e96c",
      "name": "Errors & Glitches (having it wrong)",
      "color": "#986a44",
      "description": "",
      "annotation_count": 11,
      "children": [
        {
          "id": "0f758538-ea27-424f-bc0a-d6a68837832d",
          "name": "FPR",
          "color": null,
          "description": "",
          "annotation_count": 8
        },
        {
          "id": "6f10e893-2fcf-4c72-9480-04cad5612cc2",
          "name": "Consequences of an error",
          "color": null,
          "description": "",
          "annotation_count": 4
        }
      ]
    },
    {
      "id": "63bd867b-d7d4-4247-b6a6-9157ab24cff8",
      "name": "Sites of SV",
      "color": "#99c1f1",
      "description": "",
      "annotation_count": 22,
      "children": [
        {
          "id": "0fd34742-7582-42ec-96a5-ee83ad57fbb2",
          "name": "Public space",
          "color": null,
          "description": "",
          "annotation_count": 6
        }
      ]
    },
    {
      "id": "bd8ab328-85e7-44d2-bfee-2ad951587116",
      "name": "Temporality",
      "color": "#ffff00",
      "description": "",
      "annotation_count": 9,
      "children": [
        {
          "id": "a20fb815-db9a-4704-8ac1-92a5f8a5497b",
          "name": "Static images",
          "color": null,
          "description": "",
          "annotation_count": 0
        },
        {
          "id": "ac8e247a-1ed2-452c-af6f-2b345706e3eb",
          "name": "Technicalities of time",
          "color": null,
          "description": "",
          "annotation_count": 5
        }
      ]
    },
    {
      "id": "39f4a6fe-9c15-4417-bce7-8be9ef791bf2",
      "name": "Humans & Bodies",
      "color": "#dc8add",
      "description": "",
      "annotation_count": 13,
      "children": [
        {
          "id": "b38c9a6a-837f-4301-9f82-69d9c22438c9",
          "name": "Absences of bodies",
          "color": null,
          "description": "",
          "annotation_count": 3
        },
        {
          "id": "89a1924c-ec49-460e-9b79-789237b23429",
          "name": "Human-in-the-loop",
          "color": null,
          "description": "",
          "annotation_count": 14
        },
        {
          "id": "e906230f-332e-4bd4-8939-936baa05acc5",
          "name": "The human as a crowd",
          "color": null,
          "description": "",
          "annotation_count": 1
        }
      ]
    },
    {
      "id": "0a37911b-a458-491c-9145-534121d5fc92",
      "name": "Solutions",
      "color": "#f6f5f4",
      "description": "",
      "annotation_count": 9,
      "children": [
        {
          "id": "dce213cb-1fc6-4a20-9cb2-82862119fa5d",
          "name": "Juridical/Law",
          "color": null,
          "description": "",
          "annotation_count": 7
        }
      ]
    },
    {
      "id": "cfcef8bd-219e-4650-bb1c-c3d3b40ce6c1",
      "name": "Incentives for SV",
      "color": "#a51d2d",
      "description": "",
      "annotation_count": 5
    }
  ]
}